<svg width="24" height="26" viewBox="0 0 24 26" fill="none" xmlns="http://www.w3.org/2000/svg">
<line y1="22" x2="24" y2="22" stroke="black" stroke-width="2"/>
<path d="M12 0V3" stroke="black" stroke-width="2"/>
<path d="M3 12C3 7.02944 7.02944 3 12 3C16.9706 3 21 7.02944 21 12V22H3V12Z" stroke="black" stroke-width="2"/>
<path d="M15 22C15 23.6569 13.6569 25 12 25C10.3431 25 9 23.6569 9 22L15 22Z" stroke="black" stroke-width="2"/>
</svg>
